[
    {
        "name": "gcd-1",
        "first_num": "+0x4b",
        "second_num": "+0x14",
        "gcd_num": "+0x5"
    },
    {
        "name": "gcd-2",
        "first_num": "+0x7b",
        "second_num": "+0xf",
        "gcd_num": "+0x3"
    },
    {
        "name": "gcd-3",
        "first_num": "+0x1d20",
        "second_num": "+0x3be",
        "gcd_num": "+0x2"
    },
    {
        "name": "gcd-4",
        "first_num": "+0x4969eb2",
        "second_num": "+0xe6d16",
        "gcd_num": "+0xa"
    },
    {
        "name": "gcd-5",
        "first_num": "+0xa1932f214b7",
        "second_num": "+0x22a443",
        "gcd_num": "+0x22a443"
    },
    {
        "name": "gcd-6",
        "first_num": "+0x2b88846f",
        "second_num": "+0x979a14b910ef",
        "gcd_num": "+0x2b88846f"
    },
    {
        "name": "gcd-7",
        "first_num": "+0xbfe735c4d47dc0",
        "second_num": "+0xaa52b9c408538b700",
        "gcd_num": "+0x172b1e4c440"
    },
    {
        "name": "gcd-8",
        "first_num": "+0xcabd35d7d418cd6fd17df0",
        "second_num": "+0x6dc29cb71deb52547dee5c030",
        "gcd_num": "+0xed6a33fff47f0"
    },
    {
        "name": "gcd-9",
        "first_num": "+0x83693507211703bb61e4e172a4a",
        "second_num": "+0xbbb4577f2c67f791371bede6b3c",
        "gcd_num": "+0x3178a647717202a1e"
    },
    {
        "name": "gcd-10",
        "first_num": "-0x4b",
        "second_num": "+0x14",
        "gcd_num": "+0x5"
    },
    {
        "name": "gcd-11",
        "first_num": "+0x4b",
        "second_num": "-0x14",
        "gcd_num": "+0x5"
    },
    {
        "name": "gcd-12",
        "first_num": "+0xc884688a00ddbe11cc3a28f470baa4a",
        "second_num": "+0x3f98c444b872707199f498d00c2e53a95541eb5e6b3c",
        "gcd_num": "+0xa"
    },
    {
        "name": "gcd-13",
        "first_num": "+0x1564fb055cca",
        "second_num": "+0x349b2271dca40e0b80b12fc9c248508b5b570f3e80791653b564c94b6b5e6b3c",
        "gcd_num": "+0x2"
    },
    {
        "name": "gcd-14",
        "first_num": "+0x17",
        "second_num": "+0x349b2271dca40e0b81b7996ae3a8b16879c9d356577b5cce9106094b6b5e6b3c",
        "gcd_num": "+0x1"
    }
]