[
    {
        "name": "Power-ModPrim-HexDec-1",
        "first_number": "+0x1",
        "second_number": "+0x927",
        "module": "+0x5",
        "result": "+0x1"
    },
    {
        "name": "Power-ModPrim-HexDec-2",
        "first_number": "+0x2",
        "second_number": "+0x7fe",
        "module": "+0x1d",
        "result": "+0x4"
    },
    {
        "name": "Power-ModPrim-HexDec-3",
        "first_number": "+0x3",
        "second_number": "+0x27c",
        "module": "+0x161b",
        "result": "+0x3ee"
    },
    {
        "name": "Power-ModPrim-HexDec-4",
        "first_number": "+0x5",
        "second_number": "+0x1ae",
        "module": "+0x1159",
        "result": "+0x8e4"
    },
    {
        "name": "Power-ModPrim-HexDec-5",
        "first_number": "+0x7",
        "second_number": "+0x136",
        "module": "+0x85bd",
        "result": "+0x6f82"
    },
    {
        "name": "Power-ModPrim-HexDec-6",
        "first_number": "+0xa",
        "second_number": "+0x12f",
        "module": "+0xdf62569",
        "result": "+0x583f111"
    },
    {
        "name": "Power-ModPrim-HexDec-7",
        "first_number": "+0xd",
        "second_number": "+0xff",
        "module": "+0x101",
        "result": "+0xb2"
    },
    {
        "name": "Power-ModPrim-HexDec-8",
        "first_number": "+0xd",
        "second_number": "+0x100",
        "module": "+0x107",
        "result": "+0x95"
    },
    {
        "name": "Power-ModPrim-HexDec-9",
        "first_number": "+0xd",
        "second_number": "+0x10000",
        "module": "+0x35",
        "result": "+0x18"
    },
    {
        "name": "Power-ModPrim-HexDec-10",
        "first_number": "+0xd",
        "second_number": "+0x10001",
        "module": "+0x35",
        "result": "+0x2f"
    },
    {
        "name": "Power-ModPrim-HexDec-11",
        "first_number": "+0x4fdf71",
        "second_number": "+0x10001",
        "module": "+0x65",
        "result": "+0x56"
    },
    {
        "name": "Power-ModPrim-HexDec-12",
        "first_number": "+0x4f609601149",
        "second_number": "+0x10001",
        "module": "+0x65",
        "result": "+0x9"
    },
    {
        "name": "Power-ModPrim-HexDec-13",
        "first_number": "+0xfc55d9f9d892d17081",
        "second_number": "+0x10001",
        "module": "+0x65",
        "result": "+0x12"
    },
    {
        "name": "Power-ModPrim-HexDec-14",
        "first_number": "+0x283787125944077e043d3e04ef4d06ef",
        "second_number": "+0x10001",
        "module": "+0x65",
        "result": "+0x30"
    },
    {
        "name": "Power-ModPrim-HexDec-15",
        "first_number": "+0x32626c35fa29a298960e5bf48273352d91fa42a999142128",
        "second_number": "+0x10001",
        "module": "+0x65",
        "result": "+0x64"
    },
    {
        "name": "Power-ModPrim-HexDec-16",
        "first_number": "+0xfc55d9f9d892d17081",
        "second_number": "+0x3f55bd1c61b",
        "module": "+0xcde5406d",
        "result": "+0x1807b0ae"
    },
    {
        "name": "Power-ModPrim-HexDec-17",
        "first_number": "+0x283787125944077e043d3e04ef4d06ef",
        "second_number": "+0xd54c3f118b92",
        "module": "+0x10eff41a7",
        "result": "+0x77bfd232"
    },
    {
        "name": "Power-ModPrim-HexDec-18",
        "first_number": "+0x32626c35fa29a298960e5bf48273352d91fa42a999142128",
        "second_number": "+0xc43e3c358852a",
        "module": "+0xcc1bac79",
        "result": "+0xb702d610"
    },
    {
        "name": "Power-ModPrim-HexDec-19",
        "first_number": "+0x8987b26b8f2992b9b43d650552c64ce58d103833498a574c950c39",
        "second_number": "+0x1369016e83c30a026230b5",
        "module": "+0x5e1d9223723",
        "result": "+0x255c61b5eca"
    },
    {
        "name": "Power-ModPrim-HexDec-20",
        "first_number": "+0x17a02e3edf9",
        "second_number": "+0x3f55bd1c61b",
        "module": "+0x80af48257",
        "result": "+0x0"
    },
    {
        "name": "Power-ModPrim-HexDec-21",
        "first_number": "+0x6bfe6e702b8ac3",
        "second_number": "+0x1369016e83c30a026230b5",
        "module": "+0x24c38d15d85ad",
        "result": "+0x0"
    },
    {
        "name": "Power-ModPrim-HexDec-22",
        "first_number": "+0x128b",
        "second_number": "+0x10001",
        "module": "+0x65",
        "result": "+0x0"
    }
]