[
    {
        "name": "PrimeNumber-1",
        "prime_num": "+0x2",
        "bases": [
            "+0x2",
            "+0x3",
            "+0x5",
            "+0x7",
            "+0xb",
            "+0xd",
            "+0x11",
            "+0x13",
            "+0x17",
            "+0x1d",
            "+0x1f",
            "+0x25"
        ],
        "is_euler_prime": true,
        "is_fermat_prime": true
    },
    {
        "name": "PrimeNumber-2",
        "prime_num": "+0xb5",
        "bases": [
            "+0x2",
            "+0x3",
            "+0x5",
            "+0x7",
            "+0xb",
            "+0xd",
            "+0x11",
            "+0x13",
            "+0x17",
            "+0x1d",
            "+0x1f",
            "+0x25"
        ],
        "is_euler_prime": true,
        "is_fermat_prime": true
    },
    {
        "name": "PrimeNumber-3",
        "prime_num": "+0xbf",
        "bases": [
            "+0x2",
            "+0x3",
            "+0x5",
            "+0x7",
            "+0xb",
            "+0xd",
            "+0x11",
            "+0x13",
            "+0x17",
            "+0x1d",
            "+0x1f",
            "+0x25"
        ],
        "is_euler_prime": true,
        "is_fermat_prime": true
    },
    {
        "name": "PrimeNumber-4",
        "prime_num": "+0x3a009f",
        "bases": [
            "+0x2",
            "+0x3",
            "+0x5",
            "+0x7",
            "+0xb",
            "+0xd",
            "+0x11",
            "+0x13",
            "+0x17",
            "+0x1d",
            "+0x1f",
            "+0x25"
        ],
        "is_euler_prime": true,
        "is_fermat_prime": true
    },
    {
        "name": "PrimeNumber-5",
        "prime_num": "+0x3a00a5",
        "bases": [
            "+0x2",
            "+0x3",
            "+0x5",
            "+0x7",
            "+0xb",
            "+0xd",
            "+0x11",
            "+0x13",
            "+0x17",
            "+0x1d",
            "+0x1f",
            "+0x25"
        ],
        "is_euler_prime": true,
        "is_fermat_prime": true
    },
    {
        "name": "PrimeNumber-6",
        "prime_num": "+0x7a26df",
        "bases": [
            "+0x2",
            "+0x3",
            "+0x5",
            "+0x7",
            "+0xb",
            "+0xd",
            "+0x11",
            "+0x13",
            "+0x17",
            "+0x1d",
            "+0x1f",
            "+0x25"
        ],
        "is_euler_prime": true,
        "is_fermat_prime": true
    },
    {
        "name": "PrimeNumber-7",
        "prime_num": "+0x7a26f7",
        "bases": [
            "+0x2",
            "+0x3",
            "+0x5",
            "+0x7",
            "+0xb",
            "+0xd",
            "+0x11",
            "+0x13",
            "+0x17",
            "+0x1d",
            "+0x1f",
            "+0x25"
        ],
        "is_euler_prime": true,
        "is_fermat_prime": true
    },
    {
        "name": "PrimeNumber-8",
        "prime_num": "+0xdef6f1",
        "bases": [
            "+0x2",
            "+0x3",
            "+0x5",
            "+0x7",
            "+0xb",
            "+0xd",
            "+0x11",
            "+0x13",
            "+0x17",
            "+0x1d",
            "+0x1f",
            "+0x25"
        ],
        "is_euler_prime": true,
        "is_fermat_prime": true
    },
    {
        "name": "PrimeNumber-9",
        "prime_num": "+0xdef6fb",
        "bases": [
            "+0x2",
            "+0x3",
            "+0x5",
            "+0x7",
            "+0xb",
            "+0xd",
            "+0x11",
            "+0x13",
            "+0x17",
            "+0x1d",
            "+0x1f",
            "+0x25"
        ],
        "is_euler_prime": true,
        "is_fermat_prime": true
    },
    {
        "name": "PrimeNumber-10",
        "prime_num": "+0x12727235",
        "bases": [
            "+0x2",
            "+0x3",
            "+0x5",
            "+0x7",
            "+0xb",
            "+0xd",
            "+0x11",
            "+0x13",
            "+0x17",
            "+0x1d",
            "+0x1f",
            "+0x25"
        ],
        "is_euler_prime": true,
        "is_fermat_prime": true
    },
    {
        "name": "PrimeNumber-11",
        "prime_num": "+0x1272726b",
        "bases": [
            "+0x2",
            "+0x3",
            "+0x5",
            "+0x7",
            "+0xb",
            "+0xd",
            "+0x11",
            "+0x13",
            "+0x17",
            "+0x1d",
            "+0x1f",
            "+0x25"
        ],
        "is_euler_prime": true,
        "is_fermat_prime": true
    },
    {
        "name": "PrimeNumber-12",
        "prime_num": "+0x12c084cd",
        "bases": [
            "+0x2",
            "+0x3",
            "+0x5",
            "+0x7",
            "+0xb",
            "+0xd",
            "+0x11",
            "+0x13",
            "+0x17",
            "+0x1d",
            "+0x1f",
            "+0x25"
        ],
        "is_euler_prime": true,
        "is_fermat_prime": true
    },
    {
        "name": "PrimeNumber-13",
        "prime_num": "+0x12c084eb",
        "bases": [
            "+0x2",
            "+0x3",
            "+0x5",
            "+0x7",
            "+0xb",
            "+0xd",
            "+0x11",
            "+0x13",
            "+0x17",
            "+0x1d",
            "+0x1f",
            "+0x25"
        ],
        "is_euler_prime": true,
        "is_fermat_prime": true
    },
    {
        "name": "PrimeNumber-14",
        "prime_num": "+0x34ccf627",
        "bases": [
            "+0x2",
            "+0x3",
            "+0x5",
            "+0x7",
            "+0xb",
            "+0xd",
            "+0x11",
            "+0x13",
            "+0x17",
            "+0x1d",
            "+0x1f",
            "+0x25"
        ],
        "is_euler_prime": true,
        "is_fermat_prime": true
    },
    {
        "name": "PrimeNumber-15",
        "prime_num": "+0x35a20035",
        "bases": [
            "+0x2",
            "+0x3",
            "+0x5",
            "+0x7",
            "+0xb",
            "+0xd",
            "+0x11",
            "+0x13",
            "+0x17",
            "+0x1d",
            "+0x1f",
            "+0x25"
        ],
        "is_euler_prime": true,
        "is_fermat_prime": true
    },
    {
        "name": "PrimeNumber-16",
        "prime_num": "+0x35a2003f",
        "bases": [
            "+0x2",
            "+0x3",
            "+0x5",
            "+0x7",
            "+0xb",
            "+0xd",
            "+0x11",
            "+0x13",
            "+0x17",
            "+0x1d",
            "+0x1f",
            "+0x25"
        ],
        "is_euler_prime": true,
        "is_fermat_prime": true
    },
    {
        "name": "PrimeNumber-17",
        "prime_num": "+0x3a1cfd05",
        "bases": [
            "+0x2",
            "+0x3",
            "+0x5",
            "+0x7",
            "+0xb",
            "+0xd",
            "+0x11",
            "+0x13",
            "+0x17",
            "+0x1d",
            "+0x1f",
            "+0x25"
        ],
        "is_euler_prime": true,
        "is_fermat_prime": true
    },
    {
        "name": "PrimeNumber-18",
        "prime_num": "+0x3a1cfd0d",
        "bases": [
            "+0x2",
            "+0x3",
            "+0x5",
            "+0x7",
            "+0xb",
            "+0xd",
            "+0x11",
            "+0x13",
            "+0x17",
            "+0x1d",
            "+0x1f",
            "+0x25"
        ],
        "is_euler_prime": true,
        "is_fermat_prime": true
    },
    {
        "name": "PrimeNumber-19",
        "prime_num": "+0x3a6463a7",
        "bases": [
            "+0x2",
            "+0x3",
            "+0x5",
            "+0x7",
            "+0xb",
            "+0xd",
            "+0x11",
            "+0x13",
            "+0x17",
            "+0x1d",
            "+0x1f",
            "+0x25"
        ],
        "is_euler_prime": true,
        "is_fermat_prime": true
    },
    {
        "name": "PrimeNumber-20",
        "prime_num": "+0x3a6463c5",
        "bases": [
            "+0x2",
            "+0x3",
            "+0x5",
            "+0x7",
            "+0xb",
            "+0xd",
            "+0x11",
            "+0x13",
            "+0x17",
            "+0x1d",
            "+0x1f",
            "+0x25"
        ],
        "is_euler_prime": true,
        "is_fermat_prime": true
    },
    {
        "name": "PrimeNumber-21",
        "prime_num": "+0x3a8f05ad",
        "bases": [
            "+0x2",
            "+0x3",
            "+0x5",
            "+0x7",
            "+0xb",
            "+0xd",
            "+0x11",
            "+0x13",
            "+0x17",
            "+0x1d",
            "+0x1f",
            "+0x25"
        ],
        "is_euler_prime": true,
        "is_fermat_prime": true
    },
    {
        "name": "PrimeNumber-22",
        "prime_num": "+0x3a8f05c5",
        "bases": [
            "+0x2",
            "+0x3",
            "+0x5",
            "+0x7",
            "+0xb",
            "+0xd",
            "+0x11",
            "+0x13",
            "+0x17",
            "+0x1d",
            "+0x1f",
            "+0x25"
        ],
        "is_euler_prime": true,
        "is_fermat_prime": true
    }
]