[
    {
        "name": "egcd-1",
        "first_num": "+0xc",
        "second_num": "+0x19",
        "gcd_num": "+0x1",
        "u_num": "-0x2",
        "v_num": "+0x1"
    },
    {
        "name": "egcd-2",
        "first_num": "+0x7b",
        "second_num": "+0x101",
        "gcd_num": "+0x1",
        "u_num": "-0x75",
        "v_num": "+0x38"
    },
    {
        "name": "egcd-3",
        "first_num": "+0x1e335",
        "second_num": "+0x5d72d2e",
        "gcd_num": "+0x1",
        "u_num": "+0xb86963",
        "v_num": "-0x3b99"
    },
    {
        "name": "egcd-4",
        "first_num": "+0x8c910890c65",
        "second_num": "+0xe6555fc6acf6",
        "gcd_num": "+0x1",
        "u_num": "+0x46fd7baa2f6d",
        "v_num": "-0x2b52cdc6b00"
    },
    {
        "name": "egcd-5",
        "first_num": "+0x218db2e8409d2ed84",
        "second_num": "+0x59f959699bda8d",
        "gcd_num": "+0x1",
        "u_num": "+0x7199f4e4d903",
        "v_num": "-0x2a5d5f52f34a977"
    },
    {
        "name": "egcd-6",
        "first_num": "+0x14f88fd1286f622d84",
        "second_num": "+0xdba9c34ad56da7ded",
        "gcd_num": "+0x1",
        "u_num": "-0x5658768531cc91969",
        "v_num": "+0x83e488b9e9ac4ef19"
    },
    {
        "name": "egcd-7",
        "first_num": "+0x143edca9c3b0149a45",
        "second_num": "+0x144b305d27d57803ac03b042334f9",
        "gcd_num": "+0x1",
        "u_num": "-0x1c0ced115d1d7f0e281e8d9c9868",
        "v_num": "+0x1bfbe32cfa4577b91"
    },
    {
        "name": "egcd-8",
        "first_num": "+0x2adf2319ee16796dd680464d1a8c191d5f6b",
        "second_num": "+0x44c1fc179289bd7c43269d9e9f9ce8ab8b147787ac07c7",
        "gcd_num": "+0x1",
        "u_num": "-0x961394ca4a2e8470a48fdffd0ee74a8005715c13f82ad",
        "v_num": "+0x5d93434ca716a39bfc21a48e29cc32bc430"
    },
    {
        "name": "egcd-9",
        "first_num": "+0x162a034d762a16003fd5016a6634db1e3c860313b1269d42019914e43",
        "second_num": "+0x156a906d694d52303798ccd7cab08b2e0b1467ff37b6536f7920996942016957d1cf846b33a2f69e745a779a63e51cb7d7",
        "gcd_num": "+0x1",
        "u_num": "+0x744ece3ff6e6fd398be880f1aa94a484a32f70e573e17bc79f3ef18f54427f875772b32a41c3948792004bafde2c6bf79",
        "v_num": "-0x785e875edf6d0bb417c84f4046b0199069b4bcc37c4f2401a2efbd66"
    },
    {
        "name": "egcd-10",
        "first_num": "+0x6da29",
        "second_num": "+0x19",
        "gcd_num": "+0x5",
        "u_num": "+0x2",
        "v_num": "-0x8c55"
    },
    {
        "name": "egcd-11",
        "first_num": "+0x18ce0ac80c5393eee2",
        "second_num": "+0x100",
        "gcd_num": "+0x2",
        "u_num": "+0x11",
        "v_num": "-0x1a5aeb748d18cd2dd"
    },
    {
        "name": "egcd-12",
        "first_num": "+0x18c4ff607b841a62e6ddf00e",
        "second_num": "+0x6e",
        "gcd_num": "+0xa",
        "u_num": "+0x2",
        "v_num": "-0x734a761e2c4af3d5a6f1bf"
    }
]