[
    {
        "name": "RSA-1",
        "p": "+0x18d",
        "q": "+0x239",
        "e": "+0x5",
        "to_find_phi": "+0x36ea0",
        "to_find_d": "+0x20f2d"
    },
    {
        "name": "RSA-2",
        "p": "+0x967d81",
        "q": "+0x133211",
        "e": "+0x3",
        "to_find_phi": "+0xb48be6ad800",
        "to_find_d": "+0x785d4473aab"
    },
    {
        "name": "RSA-3",
        "p": "+0x967d81",
        "q": "+0x133211",
        "e": "+0x10001",
        "to_find_phi": "+0xb48be6ad800",
        "to_find_d": "+0x4f85b76b001"
    },
    {
        "name": "RSA-4",
        "p": "+0x11968625",
        "q": "+0x11969a7d",
        "e": "+0x3",
        "to_find_phi": "+0x13557b80eb2a170",
        "to_find_d": "+0xce3a7ab477164b"
    },
    {
        "name": "RSA-5",
        "p": "+0x11968625",
        "q": "+0x11969a7d",
        "e": "+0x10001",
        "to_find_phi": "+0x13557b80eb2a170",
        "to_find_d": "+0x127b12ac1f9e431"
    },
    {
        "name": "RSA-6",
        "p": "+0x12730d57",
        "q": "+0x12abbd53",
        "e": "+0x10001",
        "to_find_phi": "+0x158776ece24c38c",
        "to_find_d": "+0x6658960389c8d"
    },
    {
        "name": "RSA-7",
        "p": "+0x12c08515",
        "q": "+0x34676d2f",
        "e": "+0x7",
        "to_find_phi": "+0x3d6ae7cf24d6d98",
        "to_find_d": "+0x118c423b2f18d07"
    },
    {
        "name": "RSA-8",
        "p": "+0x35519729",
        "q": "+0x35a1ffd9",
        "e": "+0x3",
        "to_find_phi": "+0xb2ba1e49a9061c0",
        "to_find_d": "+0x7726bedbc60412b"
    },
    {
        "name": "RSA-9",
        "p": "+0x395324e1",
        "q": "+0x3a590b51",
        "e": "+0x10001",
        "to_find_phi": "+0xd10c6cb0e712600",
        "to_find_d": "+0x40b1f1a945b9c01"
    },
    {
        "name": "RSA-10",
        "p": "+0x3a8f05ad",
        "q": "+0x3a8f05c5",
        "e": "+0x5",
        "to_find_phi": "+0xd651e7ec3b0b3b0",
        "to_find_d": "+0xab74b989c8d5c8d"
    },
    {
        "name": "RSA-11",
        "p": "+0x3a8f05ad",
        "q": "+0x3a8f05c5",
        "e": "+0x133211",
        "to_find_phi": "+0xd651e7ec3b0b3b0",
        "to_find_d": "+0xb772795fc66d151"
    },
    {
        "name": "RSA-12",
        "p": "+0x78c27c979",
        "q": "+0x78c27c4af",
        "e": "+0x5",
        "to_find_phi": "+0x38f6e86af50a92cf90",
        "to_find_d": "+0x16c929c462043ab96d"
    },
    {
        "name": "RSA-13",
        "p": "+0x78c27c979",
        "q": "+0x78c27c4af",
        "e": "+0x11969a7d",
        "to_find_phi": "+0x38f6e86af50a92cf90",
        "to_find_d": "+0x1454e6c41965aa6925"
    },
    {
        "name": "RSA-14",
        "p": "+0xab1cdb9",
        "q": "+0xab1e40d",
        "e": "+0xab1de4f",
        "to_find_phi": "+0x72607f47c584a0",
        "to_find_d": "+0x1d7015f19d630f"
    },
    {
        "name": "RSA-15",
        "p": "+0x91b4f3df38953c001",
        "q": "+0xc1089bbfc374aae001",
        "e": "+0x5",
        "to_find_phi": "+0x6dde52289d8b9eb6a432b337cc6c8000000",
        "to_find_d": "+0x2bf287437237d915db477ae31e91ccccccd"
    },
    {
        "name": "RSA-16",
        "p": "+0x519f0cb14cf36cfcda7d08fab2b578314c9542801",
        "q": "+0xdb1a02c00e3cc7610a12cbca4441fb001",
        "e": "+0x10001",
        "to_find_phi": "+0x45db5ae370c30a133d1e0e646727cb312d2adec0fbe1fd2a62223971003666a63ab3800000",
        "to_find_d": "+0x16a5364076a47356ab405c100634ab34e4dc79db7b8bd5e2f06f01c9f4f4adb003657f0001"
    },
    {
        "name": "RSA-17",
        "p": "+0xd3eafc3af14601",
        "q": "+0x13540775b48cc32ba01",
        "e": "+0x7",
        "to_find_phi": "+0xfffffffffffffecabeb4b9baf8dc0000",
        "to_find_d": "+0x92492492492491986cf98eb3fbeb6db7"
    }
]