[
    {
        "name": "Compare-HexDec-1",
        "first_number": "+0x0",
        "second_number": "+0x0",
        "first_sec_comp": 0,
        "sec_first_comp": 0
    },
    {
        "name": "Compare-HexDec-2",
        "first_number": "+0x0",
        "second_number": "-0x1",
        "first_sec_comp": 1,
        "sec_first_comp": -1
    },
    {
        "name": "Compare-HexDec-3",
        "first_number": "+0x0",
        "second_number": "+0x1",
        "first_sec_comp": -1,
        "sec_first_comp": 1
    },
    {
        "name": "Compare-HexDec-4",
        "first_number": "-0x1",
        "second_number": "-0x1",
        "first_sec_comp": 0,
        "sec_first_comp": 0
    },
    {
        "name": "Compare-HexDec-5",
        "first_number": "+0x1",
        "second_number": "+0x1",
        "first_sec_comp": 0,
        "sec_first_comp": 0
    },
    {
        "name": "Compare-HexDec-6",
        "first_number": "+0x160d64e",
        "second_number": "+0xa8f72e92d",
        "first_sec_comp": -1,
        "sec_first_comp": 1
    },
    {
        "name": "Compare-HexDec-7",
        "first_number": "-0x3682d9baf2",
        "second_number": "-0x3682d9baf2",
        "first_sec_comp": 0,
        "sec_first_comp": 0
    },
    {
        "name": "Compare-HexDec-8",
        "first_number": "+0x110136fdf",
        "second_number": "+0x3ef12d9e0555182d",
        "first_sec_comp": -1,
        "sec_first_comp": 1
    },
    {
        "name": "Compare-HexDec-9",
        "first_number": "+0x3ef12d9e0555182d",
        "second_number": "+0x3ef12d9e0555182d",
        "first_sec_comp": 0,
        "sec_first_comp": 0
    },
    {
        "name": "Compare-HexDec-10",
        "first_number": "-0x3ef12d9e0555182d",
        "second_number": "-0x3ef12d9e0555182d",
        "first_sec_comp": 0,
        "sec_first_comp": 0
    },
    {
        "name": "Compare-HexDec-11",
        "first_number": "+0xcb6d2027676a2df46",
        "second_number": "+0x1c8ea0a4d50dc341208844",
        "first_sec_comp": -1,
        "sec_first_comp": 1
    },
    {
        "name": "Compare-HexDec-12",
        "first_number": "+0x2f8b1ca823b0a8a58ab0a3ad1",
        "second_number": "+0x19ac52e93381dc920360acce83ffbb73",
        "first_sec_comp": -1,
        "sec_first_comp": 1
    },
    {
        "name": "Compare-HexDec-13",
        "first_number": "-0xed4ce8701dab35ed2dad57aaa2741b",
        "second_number": "-0x1bf482dd1face624f05a36a79eda6bb153b9",
        "first_sec_comp": 1,
        "sec_first_comp": -1
    },
    {
        "name": "Compare-HexDec-14",
        "first_number": "+0xf",
        "second_number": "+0xff",
        "first_sec_comp": -1,
        "sec_first_comp": 1
    },
    {
        "name": "Compare-HexDec-15",
        "first_number": "+0xffff",
        "second_number": "+0xfffffff",
        "first_sec_comp": -1,
        "sec_first_comp": 1
    },
    {
        "name": "Compare-HexDec-16",
        "first_number": "+0xfffffffff",
        "second_number": "+0xffffffffffff",
        "first_sec_comp": -1,
        "sec_first_comp": 1
    },
    {
        "name": "Compare-HexDec-17",
        "first_number": "+0xffffffffffff",
        "second_number": "+0x7ffffffffffffffffffffffffffffffffffffffffffffffffffffffffffffff",
        "first_sec_comp": -1,
        "sec_first_comp": 1
    },
    {
        "name": "Compare-HexDec-18",
        "first_number": "+0xffffffffffff",
        "second_number": "+0xfffffffffffffffffffffffffffffffffffffffffffffffffffffffffffffff",
        "first_sec_comp": -1,
        "sec_first_comp": 1
    },
    {
        "name": "Compare-HexDec-19",
        "first_number": "+0xffffffffffff",
        "second_number": "+0x7fffffffffffffffffffffffffffffffffffffffffffffffffffffffffffffff",
        "first_sec_comp": -1,
        "sec_first_comp": 1
    },
    {
        "name": "Compare-HexDec-20",
        "first_number": "+0xffffffffffff",
        "second_number": "+0xffffffffffffffffffffffffffffffffffffffffffffffffffffffffffffffff",
        "first_sec_comp": -1,
        "sec_first_comp": 1
    },
    {
        "name": "Compare-HexDec-21",
        "first_number": "+0xffffffffffff",
        "second_number": "-0x1",
        "first_sec_comp": 1,
        "sec_first_comp": -1
    }
]